{
    "packageDirectories": [
        {
            "path": "force-app",
            "default": true,
            "package": "GoVerify",
            "versionName": "ver 0.1",
            "versionNumber": "1.0.0.NEXT"
        }
    ],
    "namespace": "",
    "sfdcLoginUrl": "https://login.salesforce.com",
    "sourceApiVersion": "47.0",
    "packageAliases": {
        "GoVerify": "0Ho3X000000PB74SAG"
    }
}